Thesis data Main Analysis
…
## Warning in sqrt(2 - 2 * covariance): NaNs produced

# 2. BFS vs BSthought
results_BFS_BSthought <- map_dfr(target_vars, compare_correlates, x_name = "BFS_score", y_name = "BSthought", Thesis_scale = Thesis_scale)

# 3. BPS vs BSthought
results_BPS_BSthought <- map_dfr(target_vars, compare_correlates, x_name = "BPS_score", y_name = "BSthought", Thesis_scale = Thesis_scale)

## Warning in sqrt(2 * R(r.jk, r.jh, r.kh)): NaNs produced

##View the results in a table
print(results_BFS_BPS)

## # A tibble: 32 × 8
##    variable       r_pred1 r_pred2 r_variable p_Hotelling    p_Steiger conclusion
##    <chr>            <dbl>   <dbl>      <dbl>       <dbl>        <dbl> <chr>     
##  1 BFS_score        1      0.231       0.231   NaN       0            Not Diffe…
##  2 BFSe_score       0.724  0.0868      0.231     0       0            Different 
##  3 BFSp_score       0.933  0.258       0.231     0       0            Different 
##  4 BPS_score        0.231  1           0.231   NaN       0            Not Diffe…
##  5 LIE_score        0.448  0.127       0.231     7.75e-9 0.0000000141 Different 
##  6 sdtnarc_score    0.162  0.0888      0.231     2.25e-1 0.225        Not Diffe…
##  7 sdtmach_score    0.426  0.161       0.231     2.10e-6 0.00000303   Different 
##  8 sdtpsych_score   0.309  0.216       0.231     1.03e-1 0.107        Not Diffe…
##  9 narc_score       0.207  0.200       0.231     9.09e-1 0.909        Not Diffe…
## 10 mach_score       0.419  0.216       0.231     2.41e-4 0.000303     Different 
## # ℹ 22 more rows
## # ℹ 1 more variable: hotelingt <dbl>

print(results_BFS_BSthought)

## # A tibble: 32 × 8
##    variable       r_pred1   r_pred2 r_variable p_Hotelling p_Steiger conclusion 
##    <chr>            <dbl>     <dbl>      <dbl>       <dbl>     <dbl> <chr>      
##  1 BFS_score        1      0.0223       0.0223    0         0        Different  
##  2 BFSe_score       0.724 -0.0411       0.0223    0         0        Different  
##  3 BFSp_score       0.933  0.0510       0.0223    0         0        Different  
##  4 BPS_score        0.231  0.251        0.0223    7.57e- 1  7.61e- 1 Not Differ…
##  5 LIE_score        0.448 -0.0169       0.0223    2.43e-13  7.04e-13 Different  
##  6 sdtnarc_score    0.162  0.0283       0.0223    4.96e- 2  5.01e- 2 Different  
##  7 sdtmach_score    0.426  0.0661       0.0223    1.36e- 8  2.59e- 8 Different  
##  8 sdtpsych_score   0.309  0.000179     0.0223    3.13e- 6  3.85e- 6 Different  
##  9 narc_score       0.207  0.0110       0.0223    3.78e- 3  3.92e- 3 Different  
## 10 mach_score       0.419  0.0938       0.0223    2.53e- 7  4.39e- 7 Different  
## # ℹ 22 more rows
## # ℹ 1 more variable: hotelingt <dbl>

print(results_BPS_BSthought)

## # A tibble: 32 × 8
##    variable       r_pred1   r_pred2 r_variable p_Hotelling p_Steiger conclusion 
##    <chr>            <dbl>     <dbl>      <dbl>       <dbl>     <dbl> <chr>      
##  1 BFS_score       0.231   0.0223        0.251    0.000397  0.000423 Different  
##  2 BFSe_score      0.0868 -0.0411        0.251    0.0329    0.0331   Different  
##  3 BFSp_score      0.258   0.0510        0.251    0.000419  0.000452 Different  
##  4 BPS_score       1       0.251         0.251  NaN         0        Not Differ…
##  5 LIE_score       0.127  -0.0169        0.251    0.0162    0.0164   Different  
##  6 sdtnarc_score   0.0888  0.0283        0.251    0.313     0.313    Not Differ…
##  7 sdtmach_score   0.161   0.0661        0.251    0.110     0.111    Not Differ…
##  8 sdtpsych_score  0.216   0.000179      0.251    0.000269  0.000287 Different  
##  9 narc_score      0.200   0.0110        0.251    0.00142   0.00148  Different  
## 10 mach_score      0.216   0.0938        0.251    0.0372    0.0379   Different  
## # ℹ 22 more rows
## # ℹ 1 more variable: hotelingt <dbl>
