Portfolio 2
…
##After taking a look at the dataset, I want to merge Winston-Salem to Winston because they refer to the same location. 
NC_haunted_places <- NC_haunted_places %>%
mutate(
  city = case_when(
    city == "Winston-Salem" ~ "Winston",
    TRUE ~ city
  ))

##I want to see which city has the most and least haunted houses in NC. 
haunted_counts_NC <- NC_haunted_places %>%
  count(city, name = "num_haunted_houses") %>% 
  arrange(desc(num_haunted_houses))
print(haunted_counts_NC)

## # A tibble: 128 × 2
##    city         num_haunted_houses
##    <chr>                     <int>
##  1 Asheville                    10
##  2 Charlotte                     8
##  3 Winston                       8
##  4 Fayetteville                  6
##  5 Concord                       5
##  6 Morganton                     5
##  7 Raleigh                       5
##  8 Havelock                      4
##  9 Jacksonville                  4
## 10 Lenoir                        4
## # ℹ 118 more rows
…
